module gitlab.com/otus-go-hw/hw-29

go 1.14

require (
	github.com/cenkalti/backoff v2.2.1+incompatible
	github.com/cenkalti/backoff/v3 v3.2.2
	github.com/cockroachdb/apd v1.1.0 // indirect
	github.com/gofrs/uuid v3.2.0+incompatible // indirect
	github.com/golang/protobuf v1.4.0
	github.com/heetch/confita v0.9.0
	github.com/jackc/fake v0.0.0-20150926172116-812a484cc733 // indirect
	github.com/jackc/pgx v3.6.2+incompatible
	github.com/jmoiron/sqlx v1.2.0
	github.com/manifoldco/promptui v0.7.0
	github.com/shopspring/decimal v1.2.0 // indirect
	github.com/sirupsen/logrus v1.6.0
	github.com/spf13/cobra v1.0.0
	github.com/spf13/pflag v1.0.5
	github.com/streadway/amqp v0.0.0-20200108173154-1c71cc93ed71
	google.golang.org/grpc v1.29.1
	google.golang.org/protobuf v1.21.0
)
