module gihub.com/Temain/otus-golang/hw-29/tests

go 1.14

require (
	gitlab.com/otus-go-hw/hw-29 v0.0.0-20200502190703-6590430a77af
	github.com/cucumber/godog v0.9.0
	github.com/cucumber/messages-go/v10 v10.0.3
	github.com/golang/protobuf v1.4.0
	google.golang.org/grpc v1.29.1
)
